Danish Monarchs
…
Do your start and end of reign columns contain NAs? Choose the right
strategy to deal with them: na.omit(),
na.rm=TRUE, !is.na()

Create a new column called duration in the monarchs
dataset, utilizing the mutate() function from tidyverse.
Check with your group to brainstorm the options.

# YOUR CODE
monarchs %>% 
  mutate(duration=end_of_reign-start_of_reign) %>% 
  select(name_monach,duration)

## # A tibble: 55 × 2
##    name_monach duration
##    <chr>          <dbl>
##  1 Gorm              NA
##  2 Harald_1          29
##  3 Svend_1           27
##  4 Harald_2           4
##  5 Knud_1            17
##  6 Hardeknud          7
##  7 Magnus             5
##  8 Svend_2           27
##  9 Harald_3           6
## 10 Knud_2             6
## # ℹ 45 more rows
…
## # A tibble: 1 × 1
##       n
##   <int>
## 1    24

monarchs %>% 
  mutate(duration=end_of_reign-start_of_reign) %>%
  select(name_monach, duration) %>% 
  filter(duration>mean(duration,na.rm=TRUE))

## # A tibble: 24 × 2
##    name_monach duration
##    <chr>          <dbl>
##  1 Harald_1          29
##  2 Svend_1           27
##  3 Svend_2           27
##  4 Niels             30
##  5 Valdemar_1        36
##  6 Valdemar_2        39
##  7 Erik_5            27
##  8 Erik_6            33
##  9 Valdemar_4        35
## 10 Erik_7            43
## # ℹ 14 more rows
…
